{
  "required": true,
  "minVersion": "0.8",
  "package": "net.sssubtlety.automated_crafting.mixin",
  "compatibilityLevel": "JAVA_8",
  "mixins": [
    "accessor.CraftingInventoryAccessor",
    "Schema3682Mixin"
  ],
  "injectors": {
    "defaultRequire": 1
  }
}
